<svg width="679" height="540" viewBox="0 0 679 540" fill="none" xmlns="http://www.w3.org/2000/svg">
<g filter="url(#filter0_f_3_1032)">
<circle cx="12" cy="-33" r="313" fill="#FFDD86" fill-opacity="0.22"/>
</g>
<defs>
<filter id="filter0_f_3_1032" x="-655" y="-700" width="1334" height="1334" filterUnits="userSpaceOnUse" color-interpolation-filters="sRGB">
<feFlood flood-opacity="0" result="BackgroundImageFix"/>
<feBlend mode="normal" in="SourceGraphic" in2="BackgroundImageFix" result="shape"/>
<feGaussianBlur stdDeviation="177" result="effect1_foregroundBlur_3_1032"/>
</filter>
</defs>
</svg>
